SV/SV_HW/HW1/transcript
# vsim -do 4bitdo.do -c fourbitadder_tb 
# ** Note: (vsim-3812) Design is being optimized...
# //  Questa Sim
# //  Version 10.2a linux Mar 15 2013
# //
# //  Copyright 1991-2013 Mentor Graphics Corporation
# //  All Rights Reserved.
# //
# //  THIS WORK CONTAINS TRADE SECRET AND PROPRIETARY INFORMATION
# //  WHICH IS THE PROPERTY OF MENTOR GRAPHICS CORPORATION OR ITS
# //  LICENSORS AND IS SUBJECT TO LICENSE TERMS.
# //
# Loading sv_std.std
# Loading work.fourbitadder_tb(fast)
# do 4bitdo.do 
# QuestaSim vlog 10.2a Compiler 2013.03 Mar 15 2013
# -- Compiling module adderchecker
# -- Compiling module leafadder
# -- Compiling module fourbitadder_tb
# 
# Top level modules:
# 	fourbitadder_tb
# vsim fourbitadder_tb 
# Loading sv_std.std
# Loading work.fourbitadder_tb(fast)
# A 	 B 	 Cin 		 DesignS 	 DesignCout 	 CheckerS 	 CheckerCout
#   4 	  1 	 0 		    5   	    0      	     5     	   0
# Test Passed 
#   9 	  3 	 0 		   12   	    0      	    12     	   0
# Test Passed 
#  13 	 13 	 0 		   10   	    1      	    10     	   1
# Test Passed 
#   5 	  2 	 0 		    7   	    0      	     7     	   0
# Test Passed 
#   1 	 13 	 0 		   14   	    0      	    14     	   0
# Test Passed 
#   6 	 13 	 0 		    3   	    1      	     3     	   1
# Test Passed 
#  13 	 12 	 0 		    9   	    1      	     9     	   1
# Test Passed 
#   9 	  6 	 0 		   15   	    0      	    15     	   0
# Test Passed 
#   5 	 10 	 0 		   15   	    0      	    15     	   0
# Test Passed 
#   5 	  7 	 0 		   12   	    0      	    12     	   0
# Test Passed 
#   2 	 15 	 0 		    1   	    1      	     1     	   1
# Test Passed 
#   2 	 14 	 0 		    0   	    1      	     0     	   1
# Test Passed 
#   8 	  5 	 0 		   13   	    0      	    13     	   0
# Test Passed 
#  12 	 13 	 0 		    9   	    1      	     9     	   1
# Test Passed 
#  13 	  5 	 0 		    2   	    1      	     2     	   1
# Test Passed 
#   3 	 10 	 0 		   13   	    0      	    13     	   0
# Test Passed 
#   0 	  0 	 0 		    0   	    0      	     0     	   0
# Test Passed 
#  10 	 13 	 0 		    7   	    1      	     7     	   1
# Test Passed 
#   6 	  3 	 0 		    9   	    0      	     9     	   0
# Test Passed 
#  13 	  3 	 0 		    0   	    1      	     0     	   1
# Test Passed 
#  11 	  5 	 0 		    0   	    1      	     0     	   1
# Test Passed 
#   2 	 14 	 0 		    0   	    1      	     0     	   1
# Test Passed 
#  13 	 15 	 0 		   12   	    1      	    12     	   1
# Test Passed 
#   3 	 10 	 0 		   13   	    0      	    13     	   0
# Test Passed 
#  10 	 12 	 0 		    6   	    1      	     6     	   1
# Test Passed 
#   2 	 10 	 0 		   12   	    0      	    12     	   0
# Test Passed 
#   1 	  8 	 0 		    9   	    0      	     9     	   0
# Test Passed 
#   8 	  9 	 0 		    1   	    1      	     1     	   1
# Test Passed 
#  11 	  6 	 0 		    1   	    1      	     1     	   1
# Test Passed 
#   6 	 14 	 0 		    4   	    1      	     4     	   1
# Test Passed 
#  12 	 10 	 0 		    6   	    1      	     6     	   1
# Test Passed 
#  11 	  1 	 0 		   12   	    0      	    12     	   0
# Test Passed 
#   5 	 15 	 0 		    4   	    1      	     4     	   1
# Test Passed 
#  11 	 10 	 0 		    5   	    1      	     5     	   1
# Test Passed 
#  14 	  5 	 0 		    3   	    1      	     3     	   1
# Test Passed 
#   1 	  9 	 0 		   10   	    0      	    10     	   0
# Test Passed 
#   2 	 12 	 0 		   14   	    0      	    14     	   0
# Test Passed 
#  15 	 15 	 0 		   14   	    1      	    14     	   1
# Test Passed 
#   8 	  7 	 0 		   15   	    0      	    15     	   0
# Test Passed 
#  15 	 12 	 0 		   11   	    1      	    11     	   1
# Test Passed 
#  11 	  9 	 0 		    4   	    1      	     4     	   1
# Test Passed 
#   9 	  0 	 0 		    9   	    0      	     9     	   0
# Test Passed 
#   7 	  1 	 0 		    8   	    0      	     8     	   0
# Test Passed 
#   6 	 12 	 0 		    2   	    1      	     2     	   1
# Test Passed 
#   2 	  8 	 0 		   10   	    0      	    10     	   0
# Test Passed 
#   7 	 13 	 0 		    4   	    1      	     4     	   1
# Test Passed 
#   2 	 14 	 0 		    0   	    1      	     0     	   1
# Test Passed 
#  13 	  9 	 0 		    6   	    1      	     6     	   1
# Test Passed 
#  15 	  3 	 0 		    2   	    1      	     2     	   1
# Test Passed 
#   5 	  8 	 0 		   13   	    0      	    13     	   0
# Test Passed 
#  11 	  9 	 0 		    4   	    1      	     4     	   1
# Test Passed 
#  15 	 10 	 0 		    9   	    1      	     9     	   1
# Test Passed 
#   8 	  6 	 0 		   14   	    0      	    14     	   0
# Test Passed 
#  14 	 12 	 0 		   10   	    1      	    10     	   1
# Test Passed 
#  10 	  6 	 0 		    0   	    1      	     0     	   1
# Test Passed 
#   3 	  3 	 0 		    6   	    0      	     6     	   0
# Test Passed 
#  15 	  3 	 0 		    2   	    1      	     2     	   1
# Test Passed 
#  15 	  4 	 0 		    3   	    1      	     3     	   1
# Test Passed 
#   7 	 11 	 0 		    2   	    1      	     2     	   1
# Test Passed 
#   6 	 10 	 0 		    0   	    1      	     0     	   1
# Test Passed 
#   9 	 13 	 0 		    6   	    1      	     6     	   1
# Test Passed 
#  10 	  5 	 0 		   15   	    0      	    15     	   0
# Test Passed 
#   5 	 15 	 0 		    4   	    1      	     4     	   1
# Test Passed 
#   9 	  4 	 0 		   13   	    0      	    13     	   0
# Test Passed 
#   0 	 10 	 0 		   10   	    0      	    10     	   0
# Test Passed 
#  11 	 14 	 0 		    9   	    1      	     9     	   1
# Test Passed 
#  12 	 10 	 0 		    6   	    1      	     6     	   1
# Test Passed 
#  13 	  3 	 0 		    0   	    1      	     0     	   1
# Test Passed 
#   6 	 14 	 0 		    4   	    1      	     4     	   1
# Test Passed 
#   7 	 10 	 0 		    1   	    1      	     1     	   1
# Test Passed 
#   6 	  8 	 0 		   14   	    0      	    14     	   0
# Test Passed 
#   9 	  8 	 0 		    1   	    1      	     1     	   1
# Test Passed 
#   4 	  3 	 0 		    7   	    0      	     7     	   0
# Test Passed 
#   4 	  9 	 0 		   13   	    0      	    13     	   0
# Test Passed 
#  11 	 13 	 0 		    8   	    1      	     8     	   1
# Test Passed 
#   9 	 13 	 0 		    6   	    1      	     6     	   1
# Test Passed 
#   6 	 10 	 0 		    0   	    1      	     0     	   1
# Test Passed 
#   6 	  5 	 0 		   11   	    0      	    11     	   0
# Test Passed 
#   6 	  4 	 0 		   10   	    0      	    10     	   0
# Test Passed 
#   7 	  9 	 0 		    0   	    1      	     0     	   1
# Test Passed 
#   4 	  8 	 0 		   12   	    0      	    12     	   0
# Test Passed 
#   8 	 13 	 0 		    5   	    1      	     5     	   1
# Test Passed 
#   7 	 14 	 0 		    5   	    1      	     5     	   1
# Test Passed 
#   8 	 12 	 0 		    4   	    1      	     4     	   1
# Test Passed 
#  13 	  9 	 0 		    6   	    1      	     6     	   1
# Test Passed 
#  12 	  6 	 0 		    2   	    1      	     2     	   1
# Test Passed 
#  10 	 13 	 0 		    7   	    1      	     7     	   1
# Test Passed 
#   6 	  0 	 0 		    6   	    0      	     6     	   0
# Test Passed 
#   3 	 10 	 0 		   13   	    0      	    13     	   0
# Test Passed 
#  14 	 10 	 0 		    8   	    1      	     8     	   1
# Test Passed 
#   5 	 10 	 0 		   15   	    0      	    15     	   0
# Test Passed 
#   9 	  7 	 0 		    0   	    1      	     0     	   1
# Test Passed 
#   6 	  0 	 0 		    6   	    0      	     6     	   0
# Test Passed 
#   6 	  6 	 0 		   12   	    0      	    12     	   0
# Test Passed 
#  13 	 12 	 0 		    9   	    1      	     9     	   1
# Test Passed 
#   6 	  8 	 0 		   14   	    0      	    14     	   0
# Test Passed 
#  14 	 11 	 0 		    9   	    1      	     9     	   1
# Test Passed 
#  15 	  9 	 0 		    8   	    1      	     8     	   1
# Test Passed 
#  10 	  1 	 0 		   11   	    0      	    11     	   0
# Test Passed 
#   7 	  1 	 0 		    8   	    0      	     8     	   0
# Test Passed 
#   6 	  0 	 0 		    6   	    0      	     6     	   0
# Test Passed 
#   5 	  5 	 0 		   10   	    0      	    10     	   0
# Test Passed 
#   9 	  1 	 0 		   10   	    0      	    10     	   0
# Test Passed 
#   5 	  8 	 0 		   13   	    0      	    13     	   0
# Test Passed 
#  11 	  3 	 0 		   14   	    0      	    14     	   0
# Test Passed 
#  12 	 10 	 0 		    6   	    1      	     6     	   1
# Test Passed 
#  14 	  8 	 0 		    6   	    1      	     6     	   1
# Test Passed 
#   9 	  1 	 0 		   10   	    0      	    10     	   0
# Test Passed 
#  14 	  6 	 0 		    4   	    1      	     4     	   1
# Test Passed 
#  15 	 10 	 0 		    9   	    1      	     9     	   1
# Test Passed 
#  10 	 13 	 0 		    7   	    1      	     7     	   1
# Test Passed 
#  14 	  8 	 0 		    6   	    1      	     6     	   1
# Test Passed 
#   9 	  8 	 0 		    1   	    1      	     1     	   1
# Test Passed 
#  10 	  3 	 0 		   13   	    0      	    13     	   0
# Test Passed 
#  11 	  7 	 0 		    2   	    1      	     2     	   1
# Test Passed 
#   6 	 10 	 0 		    0   	    1      	     0     	   1
# Test Passed 
#   4 	  9 	 0 		   13   	    0      	    13     	   0
# Test Passed 
#   2 	  4 	 0 		    6   	    0      	     6     	   0
# Test Passed 
#  15 	  6 	 0 		    5   	    1      	     5     	   1
# Test Passed 
#  10 	  2 	 0 		   12   	    0      	    12     	   0
# Test Passed 
#   2 	 13 	 0 		   15   	    0      	    15     	   0
# Test Passed 
#   4 	  4 	 0 		    8   	    0      	     8     	   0
# Test Passed 
#  10 	  9 	 0 		    3   	    1      	     3     	   1
# Test Passed 
#   1 	 14 	 0 		   15   	    0      	    15     	   0
# Test Passed 
#  11 	 11 	 0 		    6   	    1      	     6     	   1
# Test Passed 
#  15 	  9 	 0 		    8   	    1      	     8     	   1
# Test Passed 
#   6 	  5 	 0 		   11   	    0      	    11     	   0
# Test Passed 
#  15 	 11 	 0 		   10   	    1      	    10     	   1
# Test Passed 
#   8 	 14 	 0 		    6   	    1      	     6     	   1
# Test Passed 
#  11 	  2 	 0 		   13   	    0      	    13     	   0
# Test Passed 
#   8 	 13 	 0 		    5   	    1      	     5     	   1
# Test Passed 
#  11 	  2 	 0 		   13   	    0      	    13     	   0
# Test Passed 
#  14 	 13 	 0 		   11   	    1      	    11     	   1
# Test Passed 
#  12 	  8 	 0 		    4   	    1      	     4     	   1
# Test Passed 
#   1 	  6 	 0 		    7   	    0      	     7     	   0
# Test Passed 
#   1 	 11 	 0 		   12   	    0      	    12     	   0
# Test Passed 
#   8 	  3 	 0 		   11   	    0      	    11     	   0
# Test Passed 
#   6 	 11 	 0 		    1   	    1      	     1     	   1
# Test Passed 
#   2 	  4 	 0 		    6   	    0      	     6     	   0
# Test Passed 
#   3 	  8 	 0 		   11   	    0      	    11     	   0
# Test Passed 
#   2 	  8 	 0 		   10   	    0      	    10     	   0
# Test Passed 
#   9 	  5 	 0 		   14   	    0      	    14     	   0
# Test Passed 
#   1 	 11 	 0 		   12   	    0      	    12     	   0
# Test Passed 
#   1 	  8 	 0 		    9   	    0      	     9     	   0
# Test Passed 
#   7 	  1 	 0 		    8   	    0      	     8     	   0
# Test Passed 
#  15 	  4 	 0 		    3   	    1      	     3     	   1
# Test Passed 
#   8 	  6 	 0 		   14   	    0      	    14     	   0
# Test Passed 
#   4 	  2 	 0 		    6   	    0      	     6     	   0
# Test Passed 
#   6 	  1 	 0 		    7   	    0      	     7     	   0
# Test Passed 
#   5 	 13 	 0 		    2   	    1      	     2     	   1
# Test Passed 
#  11 	  5 	 0 		    0   	    1      	     0     	   1
# Test Passed 
#  13 	  7 	 0 		    4   	    1      	     4     	   1
# Test Passed 
#   4 	  7 	 0 		   11   	    0      	    11     	   0
# Test Passed 
#   7 	  9 	 0 		    0   	    1      	     0     	   1
# Test Passed 
#   9 	 11 	 0 		    4   	    1      	     4     	   1
# Test Passed 
#   9 	  1 	 0 		   10   	    0      	    10     	   0
# Test Passed 
#   1 	 10 	 0 		   11   	    0      	    11     	   0
# Test Passed 
#  10 	  5 	 0 		   15   	    0      	    15     	   0
# Test Passed 
#   3 	 12 	 0 		   15   	    0      	    15     	   0
# Test Passed 
#   2 	 14 	 0 		    0   	    1      	     0     	   1
# Test Passed 
#   8 	 15 	 0 		    7   	    1      	     7     	   1
# Test Passed 
#   6 	  0 	 0 		    6   	    0      	     6     	   0
# Test Passed 
#   8 	  0 	 0 		    8   	    0      	     8     	   0
# Test Passed 
#   8 	  6 	 0 		   14   	    0      	    14     	   0
# Test Passed 
#   5 	  0 	 0 		    5   	    0      	     5     	   0
# Test Passed 
#   4 	  9 	 0 		   13   	    0      	    13     	   0
# Test Passed 
#   0 	 12 	 0 		   12   	    0      	    12     	   0
# Test Passed 
#  10 	  2 	 0 		   12   	    0      	    12     	   0
# Test Passed 
#   5 	  1 	 0 		    6   	    0      	     6     	   0
# Test Passed 
#   7 	  3 	 0 		   10   	    0      	    10     	   0
# Test Passed 
#   9 	  6 	 0 		   15   	    0      	    15     	   0
# Test Passed 
#   5 	  1 	 0 		    6   	    0      	     6     	   0
# Test Passed 
#  13 	 10 	 0 		    7   	    1      	     7     	   1
# Test Passed 
#   7 	 12 	 0 		    3   	    1      	     3     	   1
# Test Passed 
#  12 	  1 	 0 		   13   	    0      	    13     	   0
# Test Passed 
#  11 	  6 	 0 		    1   	    1      	     1     	   1
# Test Passed 
#   7 	 14 	 0 		    5   	    1      	     5     	   1
# Test Passed 
#  12 	  5 	 0 		    1   	    1      	     1     	   1
# Test Passed 
#   0 	  0 	 0 		    0   	    0      	     0     	   0
# Test Passed 
#   2 	  4 	 0 		    6   	    0      	     6     	   0
# Test Passed 
#  13 	 13 	 0 		   10   	    1      	    10     	   1
# Test Passed 
#  11 	  9 	 0 		    4   	    1      	     4     	   1
# Test Passed 
#  14 	 13 	 0 		   11   	    1      	    11     	   1
# Test Passed 
#  11 	 15 	 0 		   10   	    1      	    10     	   1
# Test Passed 
#   3 	  3 	 0 		    6   	    0      	     6     	   0
# Test Passed 
#  13 	  1 	 0 		   14   	    0      	    14     	   0
# Test Passed 
#   4 	  5 	 0 		    9   	    0      	     9     	   0
# Test Passed 
#   0 	 13 	 0 		   13   	    0      	    13     	   0
# Test Passed 
#   2 	  8 	 0 		   10   	    0      	    10     	   0
# Test Passed 
#  13 	  2 	 0 		   15   	    0      	    15     	   0
# Test Passed 
#   4 	  6 	 0 		   10   	    0      	    10     	   0
# Test Passed 
#  12 	  0 	 0 		   12   	    0      	    12     	   0
# Test Passed 
#   7 	 10 	 0 		    1   	    1      	     1     	   1
# Test Passed 
#   4 	 10 	 0 		   14   	    0      	    14     	   0
# Test Passed 
#  12 	  0 	 0 		   12   	    0      	    12     	   0
# Test Passed 
#  10 	 11 	 0 		    5   	    1      	     5     	   1
# Test Passed 
#   6 	  5 	 0 		   11   	    0      	    11     	   0
# Test Passed 
#   2 	  2 	 0 		    4   	    0      	     4     	   0
# Test Passed 
#   9 	  4 	 0 		   13   	    0      	    13     	   0
# Test Passed 
#  13 	 11 	 0 		    8   	    1      	     8     	   1
# Test Passed 
#  12 	  7 	 0 		    3   	    1      	     3     	   1
# Test Passed 
#   6 	  9 	 0 		   15   	    0      	    15     	   0
# Test Passed 
#   4 	  0 	 0 		    4   	    0      	     4     	   0
# Test Passed 
#  12 	 12 	 0 		    8   	    1      	     8     	   1
# Test Passed 
#   7 	 10 	 0 		    1   	    1      	     1     	   1
# Test Passed 
#   1 	  8 	 0 		    9   	    0      	     9     	   0
# Test Passed 
#  11 	  3 	 0 		   14   	    0      	    14     	   0
# Test Passed 
#  12 	  3 	 0 		   15   	    0      	    15     	   0
# Test Passed 
#   4 	  9 	 0 		   13   	    0      	    13     	   0
# Test Passed 
#   9 	 15 	 0 		    8   	    1      	     8     	   1
# Test Passed 
#   4 	  7 	 0 		   11   	    0      	    11     	   0
# Test Passed 
#  13 	  0 	 0 		   13   	    0      	    13     	   0
# Test Passed 
#   2 	  9 	 0 		   11   	    0      	    11     	   0
# Test Passed 
#   9 	  0 	 0 		    9   	    0      	     9     	   0
# Test Passed 
#  12 	  3 	 0 		   15   	    0      	    15     	   0
# Test Passed 
#   3 	 10 	 0 		   13   	    0      	    13     	   0
# Test Passed 
#   8 	 13 	 0 		    5   	    1      	     5     	   1
# Test Passed 
#  10 	  4 	 0 		   14   	    0      	    14     	   0
# Test Passed 
#  11 	  9 	 0 		    4   	    1      	     4     	   1
# Test Passed 
#   2 	  2 	 0 		    4   	    0      	     4     	   0
# Test Passed 
#   9 	  0 	 0 		    9   	    0      	     9     	   0
# Test Passed 
#  14 	  7 	 0 		    5   	    1      	     5     	   1
# Test Passed 
#  11 	  6 	 0 		    1   	    1      	     1     	   1
# Test Passed 
#  11 	  0 	 0 		   11   	    0      	    11     	   0
# Test Passed 
#  15 	  9 	 0 		    8   	    1      	     8     	   1
# Test Passed 
#  12 	  9 	 0 		    5   	    1      	     5     	   1
# Test Passed 
#   5 	 15 	 0 		    4   	    1      	     4     	   1
# Test Passed 
#   0 	  1 	 0 		    1   	    0      	     1     	   0
# Test Passed 
#   9 	  7 	 0 		    0   	    1      	     0     	   1
# Test Passed 
#  10 	  8 	 0 		    2   	    1      	     2     	   1
# Test Passed 
#  11 	  4 	 0 		   15   	    0      	    15     	   0
# Test Passed 
#   8 	  7 	 0 		   15   	    0      	    15     	   0
# Test Passed 
#   6 	  0 	 0 		    6   	    0      	     6     	   0
# Test Passed 
#   7 	  5 	 0 		   12   	    0      	    12     	   0
# Test Passed 
#   4 	  7 	 0 		   11   	    0      	    11     	   0
# Test Passed 
#   6 	  9 	 0 		   15   	    0      	    15     	   0
# Test Passed 
#  11 	  1 	 0 		   12   	    0      	    12     	   0
# Test Passed 
#  11 	  0 	 0 		   11   	    0      	    11     	   0
# Test Passed 
#   2 	  5 	 0 		    7   	    0      	     7     	   0
# Test Passed 
#   0 	 15 	 0 		   15   	    0      	    15     	   0
# Test Passed 
#   6 	 15 	 0 		    5   	    1      	     5     	   1
# Test Passed 
#   9 	  8 	 0 		    1   	    1      	     1     	   1
# Test Passed 
#   6 	 15 	 0 		    5   	    1      	     5     	   1
# Test Passed 
#   1 	  5 	 0 		    6   	    0      	     6     	   0
# Test Passed 
#  14 	  0 	 0 		   14   	    0      	    14     	   0
# Test Passed 
#   5 	  8 	 0 		   13   	    0      	    13     	   0
# Test Passed 
#   4 	  9 	 0 		   13   	    0      	    13     	   0
# Test Passed 
#   1 	  7 	 0 		    8   	    0      	     8     	   0
# Test Passed 
#  14 	  1 	 0 		   15   	    0      	    15     	   0
# Test Passed 
#   5 	  8 	 0 		   13   	    0      	    13     	   0
# Test Passed 
#   0 	 10 	 0 		   10   	    0      	    10     	   0
# Test Passed 
#  15 	  1 	 0 		    0   	    1      	     0     	   1
# Test Passed 
#  13 	 14 	 0 		   11   	    1      	    11     	   1
# Test Passed 
#   2 	 12 	 0 		   14   	    0      	    14     	   0
# Test Passed 
#   9 	 15 	 0 		    8   	    1      	     8     	   1
# Test Passed 
#  11 	 15 	 0 		   10   	    1      	    10     	   1
# Test Passed 
#  10 	  9 	 0 		    3   	    1      	     3     	   1
# Test Passed 
#   3 	  3 	 0 		    6   	    0      	     6     	   0
# Test Passed 
#   5 	  1 	 0 		    6   	    0      	     6     	   0
# Test Passed 
#   7 	  9 	 0 		    0   	    1      	     0     	   1
# Test Passed 
#  10 	  1 	 0 		   11   	    0      	    11     	   0
# Test Passed 
#   2 	  4 	 0 		    6   	    0      	     6     	   0
# Test Passed 
#  10 	 13 	 0 		    7   	    1      	     7     	   1
# Test Passed 
#   9 	  5 	 0 		   14   	    0      	    14     	   0
# Test Passed 
#  13 	  9 	 0 		    6   	    1      	     6     	   1
# Test Passed 
#   1 	 15 	 0 		    0   	    1      	     0     	   1
# Test Passed 
#  11 	 13 	 0 		    8   	    1      	     8     	   1
# Test Passed 
#   0 	  6 	 0 		    6   	    0      	     6     	   0
# Test Passed 
#   2 	 13 	 0 		   15   	    0      	    15     	   0
# Test Passed 
#  10 	 12 	 0 		    6   	    1      	     6     	   1
# Test Passed 
#   0 	 11 	 0 		   11   	    0      	    11     	   0
# Test Passed 
#   5 	  8 	 0 		   13   	    0      	    13     	   0
# Test Passed 
#   6 	 12 	 0 		    2   	    1      	     2     	   1
# Test Passed 
#   3 	  9 	 0 		   12   	    0      	    12     	   0
# Test Passed 
#   8 	 11 	 0 		    3   	    1      	     3     	   1
# Test Passed 
#  14 	  3 	 0 		    1   	    1      	     1     	   1
# Test Passed 
#  12 	 14 	 0 		   10   	    1      	    10     	   1
# Test Passed 
#   4 	  9 	 0 		   13   	    0      	    13     	   0
# Test Passed 
#   9 	  3 	 0 		   12   	    0      	    12     	   0
# Test Passed 
#   4 	  5 	 0 		    9   	    0      	     9     	   0
# Test Passed 
#  12 	  9 	 0 		    5   	    1      	     5     	   1
# Test Passed 
#   2 	  5 	 0 		    7   	    0      	     7     	   0
# Test Passed 
#   5 	 14 	 0 		    3   	    1      	     3     	   1
# Test Passed 
#   2 	  8 	 0 		   10   	    0      	    10     	   0
# Test Passed 
#   8 	 13 	 0 		    5   	    1      	     5     	   1
# Test Passed 
#  15 	  8 	 0 		    7   	    1      	     7     	   1
# Test Passed 
#   0 	  5 	 0 		    5   	    0      	     5     	   0
# Test Passed 
#  12 	 11 	 0 		    7   	    1      	     7     	   1
# Test Passed 
#   0 	  5 	 0 		    5   	    0      	     5     	   0
# Test Passed 
#  13 	  0 	 0 		   13   	    0      	    13     	   0
# Test Passed 
#  13 	  9 	 0 		    6   	    1      	     6     	   1
# Test Passed 
#  12 	  0 	 0 		   12   	    0      	    12     	   0
# Test Passed 
#   0 	  0 	 0 		    0   	    0      	     0     	   0
# Test Passed 
#   1 	 13 	 0 		   14   	    0      	    14     	   0
# Test Passed 
#   5 	  5 	 0 		   10   	    0      	    10     	   0
# Test Passed 
#  13 	  4 	 0 		    1   	    1      	     1     	   1
# Test Passed 
#  10 	 12 	 0 		    6   	    1      	     6     	   1
# Test Passed 
#   8 	 14 	 0 		    6   	    1      	     6     	   1
# Test Passed 
#  10 	  6 	 0 		    0   	    1      	     0     	   1
# Test Passed 
#   7 	  3 	 0 		   10   	    0      	    10     	   0
# Test Passed 
#   5 	  7 	 0 		   12   	    0      	    12     	   0
# Test Passed 
#   5 	  3 	 0 		    8   	    0      	     8     	   0
# Test Passed 
#   9 	  6 	 0 		   15   	    0      	    15     	   0
# Test Passed 
#   8 	 14 	 0 		    6   	    1      	     6     	   1
# Test Passed 
#   0 	 10 	 0 		   10   	    0      	    10     	   0
# Test Passed 
#  12 	  9 	 0 		    5   	    1      	     5     	   1
# Test Passed 
#  11 	  0 	 0 		   11   	    0      	    11     	   0
# Test Passed 
#  15 	  8 	 0 		    7   	    1      	     7     	   1
# Test Passed 
#   5 	 13 	 0 		    2   	    1      	     2     	   1
# Test Passed 
#  11 	 12 	 0 		    7   	    1      	     7     	   1
# Test Passed 
#  12 	  4 	 0 		    0   	    1      	     0     	   1
# Test Passed 
#   9 	  5 	 0 		   14   	    0      	    14     	   0
# Test Passed 
#  14 	  3 	 0 		    1   	    1      	     1     	   1
# Test Passed 
#   8 	  4 	 0 		   12   	    0      	    12     	   0
# Test Passed 
#  12 	  6 	 0 		    2   	    1      	     2     	   1
# Test Passed 
#  10 	  8 	 0 		    2   	    1      	     2     	   1
# Test Passed 
#   5 	 10 	 0 		   15   	    0      	    15     	   0
# Test Passed 
#  10 	  3 	 0 		   13   	    0      	    13     	   0
# Test Passed 
#   2 	 12 	 0 		   14   	    0      	    14     	   0
# Test Passed 
#   9 	  3 	 0 		   12   	    0      	    12     	   0
# Test Passed 
#  11 	  8 	 0 		    3   	    1      	     3     	   1
# Test Passed 
#   2 	  9 	 0 		   11   	    0      	    11     	   0
# Test Passed 
#  15 	 11 	 0 		   10   	    1      	    10     	   1
# Test Passed 
#  13 	  8 	 0 		    5   	    1      	     5     	   1
# Test Passed 
#   5 	 15 	 0 		    4   	    1      	     4     	   1
# Test Passed 
#  11 	 11 	 0 		    6   	    1      	     6     	   1
# Test Passed 
#   0 	 13 	 0 		   13   	    0      	    13     	   0
# Test Passed 
#   2 	  4 	 0 		    6   	    0      	     6     	   0
# Test Passed 
#   7 	  6 	 0 		   13   	    0      	    13     	   0
# Test Passed 
#   2 	  9 	 0 		   11   	    0      	    11     	   0
# Test Passed 
#   4 	  6 	 0 		   10   	    0      	    10     	   0
# Test Passed 
#  10 	  0 	 0 		   10   	    0      	    10     	   0
# Test Passed 
#  14 	 12 	 0 		   10   	    1      	    10     	   1
# Test Passed 
#   1 	 11 	 0 		   12   	    0      	    12     	   0
# Test Passed 
#  12 	 12 	 0 		    8   	    1      	     8     	   1
# Test Passed 
#   7 	  1 	 0 		    8   	    0      	     8     	   0
# Test Passed 
#  11 	  5 	 0 		    0   	    1      	     0     	   1
# Test Passed 
#   9 	 15 	 0 		    8   	    1      	     8     	   1
# Test Passed 
#  15 	  0 	 0 		   15   	    0      	    15     	   0
# Test Passed 
#   3 	  6 	 0 		    9   	    0      	     9     	   0
# Test Passed 
#   2 	 10 	 0 		   12   	    0      	    12     	   0
# Test Passed 
#   1 	  7 	 0 		    8   	    0      	     8     	   0
# Test Passed 
#  14 	  1 	 0 		   15   	    0      	    15     	   0
# Test Passed 
#  13 	  5 	 0 		    2   	    1      	     2     	   1
# Test Passed 
#  12 	  8 	 0 		    4   	    1      	     4     	   1
# Test Passed 
#  12 	 10 	 0 		    6   	    1      	     6     	   1
# Test Passed 
#   5 	  7 	 0 		   12   	    0      	    12     	   0
# Test Passed 
#   3 	 14 	 0 		    1   	    1      	     1     	   1
# Test Passed 
#  13 	 14 	 0 		   11   	    1      	    11     	   1
# Test Passed 
#   8 	  4 	 0 		   12   	    0      	    12     	   0
# Test Passed 
#   0 	  6 	 0 		    6   	    0      	     6     	   0
# Test Passed 
#   2 	  8 	 0 		   10   	    0      	    10     	   0
# Test Passed 
#   5 	 14 	 0 		    3   	    1      	     3     	   1
# Test Passed 
#   6 	  3 	 0 		    9   	    0      	     9     	   0
# Test Passed 
#  11 	 11 	 0 		    6   	    1      	     6     	   1
# Test Passed 
#   7 	 15 	 0 		    6   	    1      	     6     	   1
# Test Passed 
#   4 	 10 	 0 		   14   	    0      	    14     	   0
# Test Passed 
#   6 	  4 	 0 		   10   	    0      	    10     	   0
# Test Passed 
#  11 	 11 	 0 		    6   	    1      	     6     	   1
# Test Passed 
#   4 	  4 	 0 		    8   	    0      	     8     	   0
# Test Passed 
#  13 	  1 	 0 		   14   	    0      	    14     	   0
# Test Passed 
#   5 	  9 	 0 		   14   	    0      	    14     	   0
# Test Passed 
#   9 	  0 	 0 		    9   	    0      	     9     	   0
# Test Passed 
#   6 	 12 	 0 		    2   	    1      	     2     	   1
# Test Passed 
#   7 	  8 	 0 		   15   	    0      	    15     	   0
# Test Passed 
#   3 	 14 	 0 		    1   	    1      	     1     	   1
# Test Passed 
#  12 	  0 	 0 		   12   	    0      	    12     	   0
# Test Passed 
#   0 	  0 	 0 		    0   	    0      	     0     	   0
# Test Passed 
#   3 	  8 	 0 		   11   	    0      	    11     	   0
# Test Passed 
#   1 	  3 	 0 		    4   	    0      	     4     	   0
# Test Passed 
#   8 	 15 	 0 		    7   	    1      	     7     	   1
# Test Passed 
#   7 	 10 	 0 		    1   	    1      	     1     	   1
# Test Passed 
#  13 	  0 	 0 		   13   	    0      	    13     	   0
# Test Passed 
#  11 	  1 	 0 		   12   	    0      	    12     	   0
# Test Passed 
#   2 	 12 	 0 		   14   	    0      	    14     	   0
# Test Passed 
#  13 	  5 	 0 		    2   	    1      	     2     	   1
# Test Passed 
#   0 	  4 	 0 		    4   	    0      	     4     	   0
# Test Passed 
#   4 	  0 	 0 		    4   	    0      	     4     	   0
# Test Passed 
#   3 	  3 	 0 		    6   	    0      	     6     	   0
# Test Passed 
#  13 	 12 	 0 		    9   	    1      	     9     	   1
# Test Passed 
#   8 	  7 	 0 		   15   	    0      	    15     	   0
# Test Passed 
#  15 	  3 	 0 		    2   	    1      	     2     	   1
# Test Passed 
#  11 	  8 	 0 		    3   	    1      	     3     	   1
# Test Passed 
#   2 	  9 	 0 		   11   	    0      	    11     	   0
# Test Passed 
#   7 	  2 	 0 		    9   	    0      	     9     	   0
# Test Passed 
#  14 	  7 	 0 		    5   	    1      	     5     	   1
# Test Passed 
#   4 	 11 	 0 		   15   	    0      	    15     	   0
# Test Passed 
#   8 	  5 	 0 		   13   	    0      	    13     	   0
# Test Passed 
#   5 	 10 	 0 		   15   	    0      	    15     	   0
# Test Passed 
#   8 	  2 	 0 		   10   	    0      	    10     	   0
# Test Passed 
#   8 	  0 	 0 		    8   	    0      	     8     	   0
# Test Passed 
#   3 	  4 	 0 		    7   	    0      	     7     	   0
# Test Passed 
#   5 	 10 	 0 		   15   	    0      	    15     	   0
# Test Passed 
#   6 	  4 	 0 		   10   	    0      	    10     	   0
# Test Passed 
#  11 	  8 	 0 		    3   	    1      	     3     	   1
# Test Passed 
#   8 	  7 	 0 		   15   	    0      	    15     	   0
# Test Passed 
#   8 	  5 	 0 		   13   	    0      	    13     	   0
# Test Passed 
#   1 	  3 	 0 		    4   	    0      	     4     	   0
# Test Passed 
#  11 	  5 	 0 		    0   	    1      	     0     	   1
# Test Passed 
#   0 	 11 	 0 		   11   	    0      	    11     	   0
# Test Passed 
#  15 	  0 	 0 		   15   	    0      	    15     	   0
# Test Passed 
#   8 	 13 	 0 		    5   	    1      	     5     	   1
# Test Passed 
#   6 	  1 	 0 		    7   	    0      	     7     	   0
